{"properties":  [
  {
    "name": "text.indexcontroller.index.title",
    "type": "java.lang.String",
    "description": "A description"
  },
  {
    "name": "text.indexcontroller.profile.title",
    "type": "java.lang.String",
    "description": "A description"
  },
  {
    "name": "text.indexcontroller.list.title",
    "type": "java.lang.String",
    "description": "A description"
  }
]}